Beer Analysis Paper
…
##     beer.brewery.id                      beer.name beer.id beer.abv
## 946             161 Kilt Lifter Scottish-Style Ale    1635     0.06
##     beer.ibu beer.style beer.ounces brewery.state.abb
## 946       21                     12                AZ
##                   brewery.name brewery.city state.name state.region
## 946 Four Peaks Brewing Company        Tempe    Arizona         West
##     Population Income beer.ipa.vs.ale
## 946       2212   4530

df_merged %>%
  filter(!beer.style %in% c("American Double / Imperial IPA", "American IPA", "Belgian IPA", "English India Pale Ale (IPA)")) %>%
  filter(str_detect(beer.style, "Ale") | beer.id==1635) %>%
  count(beer.style)

## # A tibble: 29 x 2
##    beer.style                   n
##    <chr>                    <int>
##  1 ""                           1
##  2 Abbey Single Ale             2
##  3 American Amber / Red Ale   133
##  4 American Black Ale          36
##  5 American Blonde Ale        108
##  6 American Brown Ale          70
##  7 American Dark Wheat Ale      7
##  8 American Pale Ale (APA)    245
##  9 American Pale Wheat Ale     97
## 10 American Strong Ale         14
## # ... with 19 more rows
…
